<?xml version="1.0" encoding="UTF-8"?>
<svg width="1024px" height="1920px" viewBox="0 0 1024 1920" version="1.1" xmlns="http://www.w3.org/2000/svg" xmlns:xlink="http://www.w3.org/1999/xlink">
    <!-- Generator: Sketch 46 (44423) - http://www.bohemiancoding.com/sketch -->
    <title>yellowBackground</title>
    <desc>Created with Sketch.</desc>
    <defs>
        <radialGradient cx="50%" cy="13.0767586%" fx="50%" fy="13.0767586%" r="66.4480816%" gradientTransform="translate(0.500000,0.130768),scale(1.000000,0.533333),rotate(90.000000),translate(-0.500000,-0.130768)" id="radialGradient-1">
            <stop stop-color="#F7EAAF" offset="0%"></stop>
            <stop stop-color="#FFCB03" offset="100%"></stop>
        </radialGradient>
    </defs>
    <g id="Page-1" stroke="none" stroke-width="1" fill="none" fill-rule="evenodd">
        <g id="Desktop" fill="url(#radialGradient-1)">
            <rect id="yellowBackground" x="0" y="0" width="1024" height="1920"></rect>
        </g>
    </g>
</svg>