<?xml version="1.0" encoding="UTF-8"?>
<svg width="1024px" height="1920px" viewBox="0 0 1024 1920" version="1.1" xmlns="http://www.w3.org/2000/svg" xmlns:xlink="http://www.w3.org/1999/xlink">
    <!-- Generator: Sketch 46 (44423) - http://www.bohemiancoding.com/sketch -->
    <title>yellowBackground</title>
    <desc>Created with Sketch.</desc>
    <defs>
        <radialGradient cx="50%" cy="13.0767586%" fx="50%" fy="13.0767586%" r="66.4480816%" gradientTransform="translate(0.500000,0.130768),scale(1.000000,0.533333),rotate(90.000000),translate(-0.500000,-0.130768)" id="radialGradient-1">
            <stop stop-color="#F7EAAF" offset="0%"></stop>
            <stop stop-color="#FFCB03" offset="100%"></stop>
        </radialGradient>
        <rect id="path-2" x="0" y="0" width="1024" height="1920"></rect>
        <filter x="-1.7%" y="-0.7%" width="103.3%" height="101.8%" filterUnits="objectBoundingBox" id="filter-3">
            <feOffset dx="0" dy="4" in="SourceAlpha" result="shadowOffsetOuter1"></feOffset>
            <feGaussianBlur stdDeviation="5" in="shadowOffsetOuter1" result="shadowBlurOuter1"></feGaussianBlur>
            <feColorMatrix values="0 0 0 0 0   0 0 0 0 0   0 0 0 0 0  0 0 0 0.5 0" type="matrix" in="shadowBlurOuter1"></feColorMatrix>
        </filter>
    </defs>
    <g id="Page-1" stroke="none" stroke-width="1" fill="none" fill-rule="evenodd">
        <g id="Desktop">
            <g id="yellowBackground">
                <use fill="black" fill-opacity="1" filter="url(#filter-3)" xlink:href="#path-2"></use>
                <use fill="url(#radialGradient-1)" fill-rule="evenodd" xlink:href="#path-2"></use>
            </g>
        </g>
    </g>
</svg>