{
	"hosting": {
		"public": "client/build",
		"ignore": ["firebase.json", "**/.*", "**/node_modules/**"],
		"rewrites": [
			{
				"source": "**",
				"destination": "/index.html"
			}
		],
		"headers": [
			{
				"source": "**/*.@(eot|otf|ttf|ttc|woff|font.css)",
				"headers": [
					{
						"key": "Access-Control-Allow-Origin",
						"value": "*"
					}
				]
			},
			{
				"source": "**/*.@(jpg|jpeg|gif|png)",
				"headers": [
					{
						"key": "Cache-Control",
						"value": "max-age=7200"
					}
				]
			}
		]
	}
}
